Chapter 4 Calcuate the basis: | btc strategy visualization
…
            btc strategy visualization

Chapter 4 Calcuate the basis:

Our trading strategy is based on the future swap and perpetual swap.
We will use the future swap and perpetual swap to calculate the basis ratio.

4.1 Open BTC perpetual-swap hour-level guaranity candlestick datasets: the datasets download from Binance API:

Calcuating the price by (high + low + close)/3
High: the highest trade price in current time period
Low: the lowest trade price in current time period
Close: the lastest trade price in current time period

## # A tibble: 795 x 2
##    date       price
##    <date>     <dbl>
##  1 2019-10-01 8342.
##  2 2019-10-02 8242.
##  3 2019-10-03 8227.
##  4 2019-10-04 8137.
##  5 2019-10-05 8096.
##  6 2019-10-06 7957.
##  7 2019-10-07 8032.
##  8 2019-10-08 8198.
##  9 2019-10-09 8332.
## 10 2019-10-10 8535.
## # ... with 785 more rows
…
